Date,Open,High,Low,Close,Adj Close,Volume
2018-01-20,1459.119995,1744.089966,1456.290039,1671.920044,1671.920044,15298218
2018-01-21,1671.920044,1671.920044,1408.430054,1469.310059,1469.310059,13957193
2018-01-22,1469.310059,1488.949951,1192.510010,1316.729980,1316.729980,12752315
2018-01-23,1317.479980,1391.780029,1212.270020,1316.969971,1316.969971,9902784
2018-01-24,1316.969971,1359.469971,1273.550049,1340.400024,1340.400024,7103657
2018-01-25,1340.410034,1373.810059,1290.420044,1318.819946,1318.819946,5680604
2018-01-26,1316.630005,1348.569946,1200.819946,1287.520020,1287.520020,7571314
2018-01-27,1287.520020,1349.380005,1253.290039,1300.030029,1300.030029,4813485
2018-01-28,1300.030029,1415.329956,1285.910034,1405.959961,1405.959961,7145587
2018-01-29,1406.540039,1425.160034,1307.420044,1331.410034,1331.410034,6682890
2018-01-30,1331.410034,1333.180054,1154.750000,1162.209961,1162.209961,9155029
2018-01-31,1164.010010,1214.160034,1113.349976,1178.199951,1178.199951,5783078
2018-02-01,1177.939941,1200.579956,927.830017,991.890015,991.890015,12016560
2018-02-02,991.799988,994.479980,741.559998,955.969971,955.969971,15403916
2018-02-03,953.830017,1058.839966,845.869995,1016.280029,1016.280029,5140135
2018-02-04,1026.219971,1035.939941,865.030029,916.090027,916.090027,4380943
2018-02-05,916.090027,938.690002,649.710022,693.549988,693.549988,11220040
2018-02-06,693.580017,797.130005,597.969971,775.510010,775.510010,11283864
2018-02-07,776.849976,850.500000,718.940002,774.780029,774.780029,6347832
2018-02-08,773.710022,1107.280029,768.140015,1050.109985,1050.109985,19375423
2018-02-09,1051.729980,1105.150024,977.010010,1056.420044,1056.420044,9661792
2018-02-10,1056.420044,1122.530029,974.349976,1009.419983,1009.419983,6756804
2018-02-11,1009.549988,1060.800049,965.760010,981.909973,981.909973,3730432
2018-02-12,981.909973,1060.660034,981.909973,1040.420044,1040.420044,3358069
2018-02-13,1039.709961,1049.790039,970.179993,986.599976,986.599976,4736045
2018-02-14,986.599976,1119.430054,984.909973,1091.680054,1091.680054,6386550
2018-02-15,1091.680054,1122.069946,1056.219971,1095.300049,1095.300049,5514067
2018-02-16,1095.300049,1240.530029,1083.979980,1234.979980,1234.979980,8733687
2018-02-17,1234.979980,1254.069946,1214.540039,1251.260010,1251.260010,4709482
2018-02-18,1250.349976,1325.430054,1131.949951,1179.449951,1179.449951,6162131
2018-02-19,1179.780029,1246.750000,1174.369995,1227.469971,1227.469971,4011853
2018-02-20,1227.469971,1257.400024,1203.560059,1220.989990,1220.989990,2727116
