Date,Open,High,Low,Close,Adj Close,Volume
2017-10-31,5288.640137,5553.020020,5243.319824,5540.379883,5540.379883,73046430
2017-11-01,5540.129883,5871.479980,5482.640137,5870.890137,5870.890137,101193430
2017-11-02,5870.890137,6426.609863,5779.649902,6077.350098,6077.350098,159019554
2017-11-03,6077.350098,6447.049805,6014.600098,6248.979980,6248.979980,117022837
2017-11-04,6248.979980,6449.740234,6079.319824,6384.049805,6384.049805,66628152
2017-11-05,6383.759766,6596.399902,6311.049805,6415.640137,6415.640137,68792019
2017-11-06,6415.640137,6488.950195,6018.250000,6048.209961,6048.209961,129728752
2017-11-07,6048.209961,6303.879883,6048.129883,6178.490234,6178.490234,76672766
2017-11-08,6178.490234,6793.470215,6146.560059,6479.810059,6479.810059,148534437
2017-11-09,6479.430176,6479.770020,6166.979980,6191.790039,6191.790039,103068790
2017-11-10,6191.790039,6316.580078,5535.330078,5710.939941,5710.939941,203599749
2017-11-11,5706.290039,5900.080078,5333.419922,5487.149902,5487.149902,116160683
2017-11-12,5487.140137,5596.990234,4726.490234,5079.189941,5079.189941,183502308
2017-11-13,5079.020020,5923.589844,5039.390137,5662.259766,5662.259766,150074463
2017-11-14,5662.259766,5798.299805,5600.879883,5680.149902,5680.149902,72128865
2017-11-15,5680.149902,6277.950195,5672.020020,6253.779785,6253.779785,121507052
2017-11-16,6260.939941,6739.680176,6134.640137,6645.069824,6645.069824,126904073
2017-11-17,6645.069824,6791.439941,6459.060059,6560.640137,6560.640137,121407060
2017-11-18,6560.640137,6660.919922,6359.910156,6602.549805,6602.549805,59007971
2017-11-19,6602.479980,6820.100098,6519.160156,6793.290039,6793.290039,68892727
2017-11-20,6793.290039,7030.339844,6734.930176,7001.290039,7001.290039,86642517
2017-11-21,7003.549805,7135.029785,6727.089844,6930.790039,6930.790039,119068172
2017-11-22,6930.899902,7104.419922,6925.080078,7010.180176,7010.180176,71657337
2017-11-23,7010.180176,7033.569824,6809.290039,6811.819824,6811.819824,79733705
2017-11-24,6811.529785,7048.459961,6705.620117,6909.830078,6909.830078,78966419
2017-11-25,6909.080078,7275.160156,6863.319824,7273.520020,7273.520020,84882701
2017-11-26,7273.520020,7856.600098,7269.750000,7699.620117,7699.620117,110284251
2017-11-27,7699.620117,8112.410156,7685.740234,8107.029785,8107.029785,156914272
2017-11-28,8112.410156,8405.110352,8045.000000,8311.490234,8311.490234,142626799
2017-11-29,8311.490234,9598.500000,7494.430176,8438.790039,8438.790039,446065229
2017-11-30,8435.839844,9172.299805,7814.970215,8564.240234,8564.240234,309088811
2017-12-01,8564.240234,9230.019531,8047.069824,9176.169922,9176.169922,216163295
2017-12-02,9176.169922,9430.860352,9027.929688,9250.959961,9250.959961,135425408
2017-12-03,9250.959961,9817.299805,9061.559570,9513.849609,9513.849609,358454792
2017-12-04,9513.849609,9755.440430,9337.269531,9755.299805,9755.299805,146716057
2017-12-05,9755.299805,10009.370117,9625.440430,9942.290039,9942.290039,143145467
2017-12-06,9942.290039,11923.919922,9940.019531,11795.530273,11795.530273,359860129
2017-12-07,11795.549805,15168.290039,11567.009766,15046.269531,15046.269531,950442279
2017-12-08,15040.070313,15510.429688,12066.000000,13503.349609,13503.349609,1254620371
2017-12-09,13503.349609,13808.730469,11075.360352,12697.709961,12697.709961,453855179
2017-12-10,12681.490234,13293.110352,11077.080078,12669.290039,12669.290039,424526265
2017-12-11,12666.929688,14486.099609,12628.969727,13863.959961,13863.959961,343305744
2017-12-12,13864.549805,14796.490234,13544.700195,14196.480469,14196.480469,287888070
2017-12-13,14196.480469,14540.160156,13243.519531,13651.179688,13651.179688,242183679
2017-12-14,13651.179688,14178.700195,13462.209961,13832.480469,13832.480469,152794089
2017-12-15,13848.250000,15106.259766,13812.870117,14879.759766,14879.759766,268554623
2017-12-16,14879.759766,16540.800781,14692.990234,16376.299805,16376.299805,244926363
2017-12-17,16374.540039,16670.939453,15760.450195,15992.809570,15992.809570,237896747
2017-12-18,15997.250000,16153.309570,15303.240234,15992.440430,15992.440430,257864579
2017-12-19,15987.959961,16028.280273,14441.040039,14992.290039,14992.290039,369173266
2017-12-20,14992.290039,15246.450195,13311.530273,13961.360352,13961.360352,515079378
2017-12-21,13958.650391,14694.769531,12688.500000,13009.240234,13009.240234,344517571
2017-12-22,13009.240234,13190.410156,9081.459961,11867.059570,11867.059570,785183950
2017-12-23,11867.059570,13446.040039,11655.480469,12503.759766,12503.759766,317566143
2017-12-24,12503.759766,12503.759766,10579.719727,11887.309570,11887.309570,288767284
2017-12-25,11874.910156,12334.929688,11222.660156,11733.820313,11733.820313,168063029
2017-12-26,11758.190430,13566.809570,11673.139648,13259.280273,13259.280273,246396778
2017-12-27,13259.089844,13767.709961,12413.000000,13087.450195,13087.450195,284132640
2017-12-28,13087.839844,13144.400391,11619.900391,12264.019531,12264.019531,310652927
2017-12-29,12264.019531,12739.320313,11974.030273,12247.679688,12247.679688,195986140
2017-12-30,12247.679688,12301.570313,10280.610352,10654.400391,10654.400391,298543933
2017-12-31,10652.120117,12130.190430,10515.120117,11850.309570,11850.309570,162095167
2018-01-01,11850.309570,11870.450195,11044.459961,11391.389648,11391.389648,115996792
2018-01-02,11391.389648,12786.480469,10933.599609,12319.790039,12319.790039,210678623
2018-01-03,12319.790039,12896.879883,12319.790039,12786.040039,12786.040039,183789795
2018-01-04,12784.730469,13047.320313,12071.400391,12725.410156,12725.410156,186683879
2018-01-05,12724.679688,14318.200195,12436.040039,14183.299805,14183.299805,283931150
2018-01-06,14182.940430,14359.209961,13578.860352,14338.580078,14338.580078,218360085
2018-01-07,14304.139648,14312.950195,13295.320313,13490.259766,13490.259766,191346890
2018-01-08,13490.259766,13492.309570,11804.450195,12618.129883,12618.129883,246277923
2018-01-09,12618.129883,12833.990234,11997.780273,12125.309570,12125.309570,196039683
2018-01-10,12119.980469,12427.959961,11363.959961,12427.959961,12427.959961,261812897
2018-01-11,12427.610352,12473.980469,10890.759766,11144.190430,11144.190430,243949080
2018-01-12,11144.190430,11720.500000,10769.620117,11497.980469,11497.980469,120444878
2018-01-13,11497.980469,12034.540039,11468.019531,11797.410156,11797.410156,68920699
2018-01-14,11797.410156,11898.549805,10958.259766,11300.219727,11300.219727,99568445
2018-01-15,11300.110352,11855.759766,11111.650391,11192.509766,11192.509766,178976785
2018-01-16,11192.509766,11217.440430,8191.759766,9306.209961,9306.209961,581105378
2018-01-17,9306.209961,9731.429688,7481.250000,9206.160156,9206.160156,563906852
2018-01-18,9206.160156,10108.769531,8859.120117,9325.400391,9325.400391,380788650
2018-01-19,9325.400391,9918.809570,9093.330078,9555.889648,9555.889648,176734411
2018-01-20,9558.049805,10720.040039,9527.139648,10538.089844,10538.089844,186943529
2018-01-21,10538.089844,10538.690430,9191.190430,9522.450195,9522.450195,217673013
2018-01-22,9522.450195,9826.059570,8242.469727,8869.759766,8869.759766,282124089
2018-01-23,8869.759766,9320.070313,8180.729980,8838.040039,8838.040039,241808547
2018-01-24,8838.040039,9341.480469,8561.250000,9231.540039,9231.540039,178304353
2018-01-25,9231.540039,9441.559570,8835.360352,9011.809570,9011.809570,157844522
2018-01-26,9011.809570,9358.610352,8375.629883,8976.459961,8976.459961,252217336
2018-01-27,8965.290039,9332.250000,8781.349609,9190.629883,9190.629883,161352721
2018-01-28,9190.870117,9576.379883,9138.830078,9401.969727,9401.969727,165953981
2018-01-29,9401.969727,9827.839844,8927.500000,9030.150391,9030.150391,150178436
2018-01-30,9030.150391,9065.400391,7939.439941,8097.680176,8097.680176,306206944
2018-01-31,8097.680176,8307.740234,7764.779785,8153.290039,8153.290039,221571933
2018-02-01,8153.370117,8192.040039,6783.450195,7179.620117,7179.620117,360695999
2018-02-02,7179.600098,7377.439941,6003.399902,7097.120117,7097.120117,478795253
2018-02-03,7098.779785,7639.790039,6546.779785,7424.290039,7424.290039,186666408
2018-02-04,7424.270020,7536.310059,6241.620117,6544.209961,6544.209961,224046248
2018-02-05,6544.209961,6703.109863,5255.290039,5480.879883,5480.879883,422397032
2018-02-06,5485.209961,6442.209961,4725.240234,6207.049805,6207.049805,573323711
2018-02-07,6206.870117,7018.930176,5804.859863,6177.359863,6177.359863,357374621
2018-02-08,6177.359863,7094.399902,6169.850098,6755.160156,6755.160156,223773717
2018-02-09,6755.160156,7157.939941,6368.669922,7085.009766,7085.009766,197249406
2018-02-10,7084.979980,7435.410156,6684.930176,7004.350098,7004.350098,203999393
2018-02-11,7005.089844,7005.089844,6424.439941,6606.509766,6606.509766,130298613
2018-02-12,6606.509766,7307.669922,6601.169922,7238.939941,7238.939941,168800447
2018-02-13,7240.609863,7280.759766,6832.370117,6921.729980,6921.729980,131634680
2018-02-14,6921.729980,7654.819824,6918.790039,7634.419922,7634.419922,186344287
2018-02-15,7634.830078,8210.349609,7545.370117,8061.629883,8061.629883,258387522
2018-02-16,8061.180176,8250.690430,7814.319824,8219.990234,8219.990234,156340375
2018-02-17,8219.990234,9001.839844,8131.029785,8970.389648,8970.389648,178504096
2018-02-18,8970.389648,9147.599609,8230.759766,8422.679688,8422.679688,213409482
2018-02-19,8424.769531,9085.450195,8369.139648,9025.139648,9025.139648,178914197
2018-02-20,9025.139648,9573.089844,9014.879883,9127.059570,9127.059570,263363803
2018-02-21,9126.830078,9176.019531,8314.969727,8520.169922,8520.169922,294682586
2018-02-22,8519.990234,8943.379883,7880.569824,7984.350098,7984.350098,272981211
2018-02-23,7984.350098,8484.219727,7778.140137,8271.309570,8271.309570,187696126
2018-02-24,8266.799805,8552.900391,7621.750000,7888.100098,7888.100098,174692028
2018-02-25,7891.319824,8039.509766,7586.470215,7795.729980,7795.729980,99906938
2018-02-26,7797.069824,8497.769531,7638.430176,8371.540039,8371.540039,190545463
2018-02-27,8371.540039,8839.669922,8228.559570,8632.000000,8632.000000,163226398
2018-02-28,8632.000000,9040.469727,8428.480469,8449.990234,8449.990234,163975645
2018-03-01,8449.580078,9000.700195,8375.799805,8871.240234,8871.240234,140847236
2018-03-02,8871.240234,9084.589844,8770.219727,8948.980469,8948.980469,132558460
2018-03-03,8948.980469,9310.959961,8945.179688,9240.259766,9240.259766,109976593
2018-03-04,9239.669922,9310.719727,8987.450195,9297.450195,9297.450195,94908326
2018-03-05,9296.230469,9451.059570,9214.110352,9261.719727,9261.719727,115708060
2018-03-06,9262.469727,9268.360352,8523.879883,8635.620117,8635.620117,183237319
2018-03-07,8635.620117,8786.110352,7641.740234,8017.750000,8017.750000,271052989
2018-03-08,8017.750000,8212.889648,7376.160156,7551.000000,7551.000000,211214720
2018-03-09,7550.540039,7646.569824,6804.620117,7526.649902,7526.649902,279979283
2018-03-10,7525.250000,7753.180176,7080.049805,7140.620117,7140.620117,149810145
2018-03-11,7140.620117,7910.660156,6872.479980,7748.459961,7748.459961,189916600
2018-03-12,7745.310059,8062.629883,7117.979980,7409.439941,7409.439941,201705719
2018-03-13,7409.439941,7684.310059,7155.379883,7402.439941,7402.439941,156890600
2018-03-14,7402.439941,7570.000000,6431.959961,6632.470215,6632.470215,223824489
2018-03-15,6633.950195,6847.560059,6221.509766,6739.049805,6739.049805,207553725
2018-03-16,6739.049805,7029.620117,6456.020020,6742.799805,6742.799805,149930635
2018-03-17,6732.549805,6839.390137,6292.520020,6404.290039,6404.290039,117695399
2018-03-18,6404.060059,6734.970215,5954.410156,6681.959961,6681.959961,192157664
2018-03-19,6681.959961,7100.319824,6606.930176,6972.229980,6972.229980,184786070
2018-03-20,6972.290039,7414.750000,6750.439941,7290.640137,7290.640137,156347531
2018-03-21,7289.259766,7481.520020,7150.729980,7223.149902,7223.149902,131101397
2018-03-22,7221.899902,7361.649902,6903.350098,7080.459961,7080.459961,118844527
2018-03-23,7078.410156,7230.270020,6730.669922,7226.890137,7226.890137,113197602
2018-03-24,7226.930176,7303.649902,6893.879883,6924.169922,6924.169922,78636568
2018-03-25,6923.910156,7064.700195,6811.890137,6866.700195,6866.700195,66401585
2018-03-25,6866.700195,6898.049805,6328.910156,6550.560059,6550.560059,136828581
2018-03-26,6548.850098,6612.750000,6238.580078,6303.370117,6303.370117,112677248
2018-03-27,6303.370117,6559.149902,6253.830078,6451.720215,6451.720215,76694134
2018-03-28,6451.720215,6471.500000,5613.069824,5746.790039,5746.790039,216224856
2018-03-29,5746.740234,5908.740234,5335.879883,5540.979980,5540.979980,208060087
2018-03-30,5540.979980,5850.709961,5520.049805,5623.979980,5623.979980,99453402
